{
  "project_info": {
    "project_number": "355660426121",
    "firebase_url": "https://english-art.firebaseio.com",
    "project_id": "english-art",
    "storage_bucket": "english-art.appspot.com"
  },
  "client": [
    {
      "client_info": {
        "mobilesdk_app_id": "1:355660426121:android:16a9357816f0701b",
        "android_client_info": {
          "package_name": "com.example.admin.englisharts"
        }
      },
      "oauth_client": [
        {
          "client_id": "355660426121-14flk7kg6dim7prbeq976qd8pakudam5.apps.googleusercontent.com",
          "client_type": 1,
          "android_info": {
            "package_name": "com.example.admin.englisharts",
            "certificate_hash": "13899273135ebe887ab9656337c80f09065bc8ef"
          }
        },
        {
          "client_id": "355660426121-f6l0lelpkrcp40msvv3hok2pda3ouvd9.apps.googleusercontent.com",
          "client_type": 3
        },
        {
          "client_id": "355660426121-f6l0lelpkrcp40msvv3hok2pda3ouvd9.apps.googleusercontent.com",
          "client_type": 3
        }
      ],
      "api_key": [
        {
          "current_key": "AIzaSyDqV0FlV6oUQqBavUeStoEqoIPL2N_BYoc"
        }
      ],
      "services": {
        "analytics_service": {
          "status": 1
        },
        "appinvite_service": {
          "status": 2,
          "other_platform_oauth_client": [
            {
              "client_id": "355660426121-f6l0lelpkrcp40msvv3hok2pda3ouvd9.apps.googleusercontent.com",
              "client_type": 3
            }
          ]
        },
        "ads_service": {
          "status": 2
        }
      }
    }
  ],
  "configuration_version": "1"
}